<svg xmlns="http://www.w3.org/2000/svg" viewBox="-10425.456 4393.054 366.947 46.847">
  <defs>
    <style>
      .cls-1 {
        opacity: 0.48;
      }

      .cls-2 {
        fill: none;
        stroke: #4885bb;
        stroke-miterlimit: 10;
        stroke-width: 6px;
      }
    </style>
  </defs>
  <g id="group-115" class="cls-1" transform="translate(-10422 172)">
    <line id="line" class="cls-2" y2="40.978" transform="translate(-0.456 4226.922)"/>
    <line id="line-2" data-name="line" class="cls-2" y2="40.103" transform="translate(8.756 4227.797)"/>
    <line id="line-3" data-name="line" class="cls-2" y2="37.931" transform="translate(18.08 4229.969)"/>
    <line id="line-4" data-name="line" class="cls-2" y2="36.148" transform="translate(27.292 4231.752)"/>
    <line id="line-5" data-name="line" class="cls-2" y2="36.148" transform="translate(36.616 4231.752)"/>
    <line id="line-6" data-name="line" class="cls-2" y2="36.148" transform="translate(45.828 4231.752)"/>
    <line id="line-7" data-name="line" class="cls-2" y2="42.794" transform="translate(55.04 4225.106)"/>
    <line id="line-8" data-name="line" class="cls-2" y2="44.609" transform="translate(64.364 4223.291)"/>
    <line id="line-9" data-name="line" class="cls-2" y2="40.103" transform="translate(73.576 4227.797)"/>
    <line id="line-10" data-name="line" class="cls-2" y2="34.559" transform="translate(82.788 4233.341)"/>
    <line id="line-11" data-name="line" class="cls-2" y2="29.372" transform="translate(92.112 4238.528)"/>
    <line id="line-12" data-name="line" class="cls-2" y2="27.2" transform="translate(101.324 4240.7)"/>
    <line id="line-13" data-name="line" class="cls-2" y2="29.372" transform="translate(110.648 4238.528)"/>
    <line id="line-14" data-name="line" class="cls-2" y2="42.243" transform="translate(119.86 4225.658)"/>
    <line id="line-15" data-name="line" class="cls-2" y2="42.178" transform="translate(129.072 4225.722)"/>
    <line id="line-16" data-name="line" class="cls-2" y2="41.594" transform="translate(138.396 4226.306)"/>
    <line id="line-17" data-name="line" class="cls-2" y2="40.136" transform="translate(147.608 4227.765)"/>
    <line id="line-18" data-name="line" class="cls-2" y2="39.228" transform="translate(156.82 4228.673)"/>
    <line id="line-19" data-name="line" class="cls-2" y2="34.559" transform="translate(166.144 4233.341)"/>
    <line id="line-20" data-name="line" class="cls-2" y2="34.559" transform="translate(175.356 4233.341)"/>
    <line id="line-21" data-name="line" class="cls-2" y2="32.225" transform="translate(184.68 4235.675)"/>
    <line id="line-22" data-name="line" class="cls-2" y2="36.569" transform="translate(193.892 4231.331)"/>
    <line id="line-23" data-name="line" class="cls-2" y2="40.427" transform="translate(203.103 4227.473)"/>
    <line id="line-24" data-name="line" class="cls-2" y2="43.151" transform="translate(212.428 4224.75)"/>
    <line id="line-25" data-name="line" class="cls-2" y2="44.545" transform="translate(221.64 4223.356)"/>
    <line id="line-26" data-name="line" class="cls-2" y2="41.497" transform="translate(230.851 4226.403)"/>
    <line id="line-27" data-name="line" class="cls-2" y2="46.846" transform="translate(240.176 4221.054)"/>
    <line id="line-28" data-name="line" class="cls-2" y2="44.545" transform="translate(249.387 4223.356)"/>
    <line id="line-29" data-name="line" class="cls-2" y2="40.103" transform="translate(258.712 4227.797)"/>
    <line id="line-30" data-name="line" class="cls-2" y2="36.569" transform="translate(267.923 4231.331)"/>
    <line id="line-31" data-name="line" class="cls-2" y2="33.587" transform="translate(277.135 4234.313)"/>
    <line id="line-32" data-name="line" class="cls-2" y2="34.462" transform="translate(286.46 4233.438)"/>
    <line id="line-33" data-name="line" class="cls-2" y2="32.225" transform="translate(295.671 4235.675)"/>
    <line id="line-34" data-name="line" class="cls-2" y2="33.587" transform="translate(304.996 4234.313)"/>
    <line id="line-35" data-name="line" class="cls-2" y2="37.315" transform="translate(314.207 4230.585)"/>
    <line id="line-36" data-name="line" class="cls-2" y2="40.978" transform="translate(323.419 4226.922)"/>
    <line id="line-37" data-name="line" class="cls-2" y2="45.679" transform="translate(332.743 4222.221)"/>
    <line id="line-38" data-name="line" class="cls-2" y2="42.988" transform="translate(341.955 4224.912)"/>
    <line id="line-39" data-name="line" class="cls-2" y2="40.427" transform="translate(351.167 4227.473)"/>
    <line id="line-40" data-name="line" class="cls-2" y2="44.609" transform="translate(360.491 4223.291)"/>
  </g>
</svg>
